Homework2/counter_4bit/counter_4bit.vcd
$date
	Sat Jan 20 21:17:22 2024
$end
$version
	Icarus Verilog
$end
$timescale
	1ns
$end
$scope module counter_4bit_testbench $end
$var wire 4 ! count_value [3:0] $end
$var reg 1 " clock $end
$var reg 1 # reset $end
$scope module design_instance $end
$var wire 1 # clear $end
$var wire 1 " clk $end
$var wire 4 $ count [3:0] $end
$var parameter 32 % WIDTH $end
$var reg 4 & cnt_value [3:0] $end
$upscope $end
$upscope $end
$enddefinitions $end
$comment Show the parameter values. $end
$dumpall
b100 %
$end
#0
$dumpvars
b0 &
b0 $
1#
0"
b0 !
$end
#10
b1 !
b1 $
b1 &
1"
0#
#20
0"
#30
b10 !
b10 $
b10 &
1"
#40
0"
#50
b11 !
b11 $
b11 &
1"
#60
0"
#70
b100 !
b100 $
b100 &
1"
#80
0"
#90
b101 !
b101 $
b101 &
1"
#100
0"
#110
b110 !
b110 $
b110 &
1"
#120
0"
#130
b111 !
b111 $
b111 &
1"
#140
0"
#150
b1000 !
b1000 $
b1000 &
1"
#160
0"
#170
b1001 !
b1001 $
b1001 &
1"
#180
0"
#190
b1010 !
b1010 $
b1010 &
1"
#200
0"
#210
b1011 !
b1011 $
b1011 &
1"
#220
0"
#230
b1100 !
b1100 $
b1100 &
1"
#240
0"
#250
b1101 !
b1101 $
b1101 &
1"
#260
0"
#270
b1110 !
b1110 $
b1110 &
1"
#280
0"
#290
b1111 !
b1111 $
b1111 &
1"
#300
0"
#310
b0 !
b0 $
b0 &
1"
#320
0"
#330
b1 !
b1 $
b1 &
1"
#340
0"
#350
1"
b0 !
b0 $
b0 &
1#
#360
0"
#370
b1 !
b1 $
b1 &
1"
0#
#380
0"
#390
b10 !
b10 $
b10 &
1"
#400
0"
#410
b11 !
b11 $
b11 &
1"
#420
0"
#430
b100 !
b100 $
b100 &
1"
#440
0"
#450
b101 !
b101 $
b101 &
1"
#460
0"
#470
b110 !
b110 $
b110 &
1"
